<svg width="150" height="112" viewBox="0 0 150 112" fill="none" xmlns="http://www.w3.org/2000/svg">
<path d="M79.4389 37.2883C93.3973 39.6059 118.756 62.2954 129.549 75.6167C127.49 86.7192 105.235 93.7088 99.4769 96.8224C93.7191 99.9361 73.9817 98.4405 59.0422 95.1979C47.0906 92.6038 42.9461 88.8809 42.3678 87.3437C32.9888 78.6657 14.9166 59.6431 17.66 52.9771C21.0891 44.6446 61.8081 34.361 79.4389 37.2883Z" fill="white"/>
<path d="M126.829 77.2281C113.851 63.8248 105.358 48.7488 87.7835 41.7657C65.9386 33.1082 39.4676 41.5248 19.5883 55.4813C17.0869 57.2232 14.6084 53.2294 17.1191 51.4378C35.5786 38.5295 57.6041 31.3307 78.6724 33.9164C103.3 36.8811 113.667 56.5178 129.879 73.2701C131.932 75.4007 128.927 79.3658 126.829 77.2281Z" fill="#282937"/>
<path d="M130.938 76.0038C118.08 98.0148 89.0727 101.139 68.5803 99.9331C46.6176 98.5893 21.9413 78.512 16.1709 54.7829C15.4227 51.7485 19.6779 49.8389 20.4168 52.9229C25.3973 73.3553 45.9705 90.156 63.8471 94.2035C82.2076 98.33 115.065 94.2521 126.912 74.0171C128.567 71.2224 132.593 73.2092 130.938 76.0038Z" fill="#282937"/>
<path d="M122.365 67.3128C127.176 61.063 133.283 56.466 139.576 52.2975C142.079 50.6577 144.515 54.5365 142.002 56.2246C136.025 60.145 130.2 64.4385 125.626 70.3779C123.722 72.8613 120.461 69.7962 122.365 67.3128Z" fill="#282937"/>
<path d="M109.325 53.2273C113.977 47.3098 119.163 41.876 125.142 37.6644C127.616 35.9233 130.039 39.845 127.565 41.5861C121.9 45.5499 116.996 50.6807 112.633 56.2469C110.69 58.7199 107.381 55.7003 109.325 53.2273Z" fill="#282937"/>
<path d="M93.1731 41.4707C97.246 34.4555 100.772 27.055 105.853 20.7966C107.814 18.3906 111.088 21.4439 109.093 23.7949C104.257 29.6968 100.933 36.7338 97.0615 43.3856C95.5369 46.06 91.5964 44.1862 93.1731 41.4707Z" fill="#282937"/>
<path d="M73.6116 35.9228C75.1874 28.1116 74.4801 20.1718 77.1541 12.5407C78.1754 9.60828 82.0344 11.57 80.9709 14.4955C78.4785 21.6151 79.2722 29.323 77.8359 36.6159C77.2282 39.6654 73.0039 38.9723 73.6116 35.9228Z" fill="#282937"/>
<path d="M54.3682 36.7225C52.6745 29.5137 51.6038 22.0586 49.2869 15.096C48.3249 12.2162 52.524 10.4166 53.443 13.2895C55.7509 20.3001 56.8306 27.7071 58.5244 34.916C59.253 37.8573 55.0878 39.7119 54.3682 36.7225Z" fill="#282937"/>
<path d="M37.0693 41.6652C33.2963 34.9896 30.3356 27.7981 27.3132 20.6962C26.1452 17.9217 30.372 16.1146 31.4967 18.8822C34.3577 25.6597 37.1754 32.4302 40.7437 38.7744C42.2607 41.3564 38.5339 44.2884 37.0693 41.6652Z" fill="#282937"/>
<path d="M19.9195 49.278C18.0067 43.8453 14.9413 39.0731 12.4692 33.9983C11.1958 31.3055 14.8808 28.3656 16.1976 31.0653C18.8127 36.5612 22.0921 41.6166 24.148 47.4704C25.1681 50.3213 20.9395 52.1289 19.9195 49.278Z" fill="#282937"/>
<path d="M65.679 33.9968C81.8711 34.2201 94.4225 43.1696 97.2952 60.3377C99.8002 75.2016 88.6426 93.8143 73.8641 96.2614C58.5801 98.7593 41.5593 87.2431 38.6843 71.0651C35.37 52.3073 48.3256 36.6247 65.679 33.9968C69.6383 33.3781 70.0208 39.8449 66.1338 40.4092C51.1391 42.6895 40.9424 56.57 45.5147 72.2942C49.0006 84.278 63.2135 92.6358 74.914 89.4303C86.5544 86.2151 92.2878 72.3442 91.2664 61.0864C89.9854 47.6077 77.9349 40.5876 66.1939 40.4189C62.2361 40.3775 61.7813 33.9652 65.679 33.9968Z" fill="#282937"/>
<path d="M55.2583 43.2894C70.0656 38.3891 80.3543 52.2887 76.9764 64.4814C73.2056 77.5725 61.436 78.7937 52.0613 72.2912C46.6203 68.4503 43.6811 61.424 45.6947 54.7029C47.3549 48.3456 50.0967 45.5522 55.2583 43.2894Z" fill="#282937"/>
</svg>
