<svg width="21" height="15" viewBox="0 0 21 15" fill="none" xmlns="http://www.w3.org/2000/svg">
<path d="M20.5079 8.2242C20.8984 7.83367 20.8984 7.20051 20.5079 6.80998L14.1439 0.446022C13.7534 0.0554976 13.1202 0.0554976 12.7297 0.446022C12.3392 0.836546 12.3392 1.46971 12.7297 1.86024L18.3866 7.51709L12.7297 13.1739C12.3392 13.5645 12.3392 14.1976 12.7297 14.5882C13.1202 14.9787 13.7534 14.9787 14.1439 14.5882L20.5079 8.2242ZM0.800781 8.51709H19.8008V6.51709H0.800781V8.51709Z" fill="#F6173F"/>
</svg>
