<svg width="24" height="24" viewBox="0 0 24 24" fill="none" xmlns="http://www.w3.org/2000/svg">
<path d="M19.4852 17.6778C19.4013 17.5868 19.3147 17.4926 19.2342 17.4006C18.8073 16.913 18.3431 16.4511 17.8941 16.0043C17.801 15.9117 17.7078 15.819 17.615 15.7262C17.0406 15.1505 16.4906 14.823 15.9337 14.7247C15.1836 14.5923 14.4566 14.8908 13.7728 15.6117C13.4698 15.9313 13.1486 16.0561 12.7911 15.993C12.5797 15.9556 12.3501 15.853 12.1088 15.6878C10.1617 14.3559 8.90984 12.6198 8.38801 10.5276C8.13572 9.5164 8.3793 8.9275 9.2025 8.55851C9.66992 8.34922 10.54 7.95956 10.663 6.94104C10.8028 5.78445 8.88011 1.89081 7.88279 1.3111C7.46054 1.0656 6.98642 0.980332 6.47092 1.05795C5.17234 1.25316 4.16501 1.82071 3.55765 2.69905C2.97073 3.54774 2.7985 4.6355 3.05957 5.84473C3.81421 9.34086 5.18263 12.5144 7.127 15.2771C9.03016 17.9815 11.5355 20.3638 14.5734 22.3576C14.8472 22.5373 15.1458 22.6616 15.3638 22.7523C15.4381 22.7833 15.5022 22.8099 15.5485 22.8318C15.574 22.8438 15.6009 22.8526 15.6285 22.8577L15.6544 22.8625C15.6545 22.8625 15.6544 22.8625 15.6546 22.8625C17.2007 23.1354 19.3063 22.052 20.1604 20.544C20.9085 19.2237 20.1193 18.3665 19.4852 17.6778Z" fill="white"/>
</svg>
